BST260_Project
…
# Filter aus_total data frame to only include diseases that have rate > 0.2
aus_total_high <- aus_total %>% 
  filter(Rates >= 0.2,
         State != "Australia")

# How many diseases are we left with in this case? n = 42
aus_total_high %>% 
  group_by(Disease) %>% 
  summarize()

## `summarise()` ungrouping output (override with `.groups` argument)

## # A tibble: 43 x 1
##    Disease                          
##    <fct>                            
##  1 Barmah Forest virus infection    
##  2 Campylobacteriosis               
##  3 Chikungunya virus infection      
##  4 Chlamydial infection             
##  5 Cholera                          
##  6 COVID-19                         
##  7 Cryptosporidiosis                
##  8 Dengue virus infection           
##  9 Gonococcal infection             
## 10 Haemolytic uraemic syndrome (HUS)
## #  with 33 more rows
…
