BST260 Final Project
…
# Rename provinces
aus_total$State <- recode(aus_total$State, "ACT" = "Australian Capital Territory", "NSW" = "New South Wales", "NT" = "Northern Territory", "Qld" = "Queensland", "SA" = "South Australia", "Tas" = "Tasmania", "Vic" = "Victoria", "WA" = "Western Australia")

#Filter aus_total df to only include diseases that have a rate of disease of > 0.2/100,000 
aus_total_high <- aus_total %>% 
  filter(Rates >= 0.2)

#How many diseases are we left with in this case? n = 42
aus_total_high %>% 
  group_by(Disease) %>% 
  summarize()

## `summarise()` ungrouping output (override with `.groups` argument)

## # A tibble: 43 x 1
##    Disease                          
##    <fct>                            
##  1 Barmah Forest virus infection    
##  2 Campylobacteriosis               
##  3 Chikungunya virus infection      
##  4 Chlamydial infection             
##  5 Cholera                          
##  6 COVID-19                         
##  7 Cryptosporidiosis                
##  8 Dengue virus infection           
##  9 Gonococcal infection             
## 10 Haemolytic uraemic syndrome (HUS)
## #  with 33 more rows
…
